id,user_id,employe,date,dossier,client,titreTache,debut,fin,temps,departement,codeTache,comment,uuidTimeSheet,_token,nbligne,created_at,updated_at
1,1,"ken mcrae",2020-04-07,99999,tandem,site,9:00,10:00,1,evenement,creation,test,c4932807-3e01-4c44-acdc-25c642363954,t,1,,
2,1,"ken mcrae",2020-04-07,99999,tandem,site,9:00,10:00,1,evenement,creation,1,109ae7d0-9286-4974-95f3-a3583a59da98,t,1,,
3,1,"ken mcrae",09/04/2020,110112,tandem,livre,11:30,12:30,1,evenement,creation,test,f43c4e9d-99ad-4556-bbeb-16bf4a16a936,B,1,,
4,1,"ken mcrae",20/04/2020,99999,tandem,site,9:00,10:00,1,evenement,design,test,29825919-bf29-4e7a-ab59-52cadf899863,6,2,,
5,1,"ken mcrae",20/04/2020,111111,tandem,site,10:00,11:00,1,evenement,design,test,29825919-bf29-4e7a-ab59-52cadf899863,d,2,,
6,1,"ken mcrae",20/04/2020,99999,test,test,9:00,10:00,1,evenement,design,test,b964493a-6353-4826-b0f9-fafb1879eccb,6,2,,
7,1,"ken mcrae",20/04/2020,1010101,tandeam,test,10:00,11:00,1,evenement,programmation,test2,b964493a-6353-4826-b0f9-fafb1879eccb,d,2,,
8,1,"ken mcrae",20/04/2020,99999,tandem,titre,9:00,10:00,1,evenement,programmation,test,12379141-f721-4be2-bba2-89d838a42a40,6,2,,
9,1,"ken mcrae",20/04/2020,10101010,tandem,titre,10:00,11:00,1,evenement,creation,test,12379141-f721-4be2-bba2-89d838a42a40,d,2,,
10,1,"ken mcrae",20/04/2020,999999,tandem,site,9:00,10:00,1,design,programmation,site,b022214e-7701-421d-999c-03be0ee5b7b4,6,2,,
11,1,"ken mcrae",20/04/2020,10101010,tandem,site,10:00,11:00,1,design,programmation,test,b022214e-7701-421d-999c-03be0ee5b7b4,d,2,,
12,1,"ken mcrae",20/04/2020,999999,test,test,9:00,10:00,1,evenement,programmation,test2,1d30a424-06d6-47bb-a8e0-8a39c620f8fe,6,2,,
13,1,"ken mcrae",20/04/2020,101010,test2,test2,10:00,11:00,1,design,programmation,test3,1d30a424-06d6-47bb-a8e0-8a39c620f8fe,d,2,,
14,1,"ken mcrae",20/04/2020,999999,tandem,titre,9:00,10:00,1,evenement,design,test2,92ed675e-11bb-4ea7-b2f5-7d87f7c2b23b,6,2,,
15,1,"ken mcrae",20/04/2020,101010,tandem,titre2,10:00,11:00,1,design,programmation,test3,92ed675e-11bb-4ea7-b2f5-7d87f7c2b23b,d,2,,
16,1,"ken mcrae",21/04/2020,3030303,tandem,site,9:00,10:00,1,evenement,design,test,aac6c293-1323-4408-a32d-b4d645ebe700,h,2,,
17,1,"ken mcrae",21/04/2020,24242424,tandem,site,10:00,10:30,0.3000000000000007,evenement,design,test3,aac6c293-1323-4408-a32d-b4d645ebe700,1,2,,
22,1,"ken mcrae",12/05/2020,99999,tandem,site,9:00,10:00,1,Choisir...,Choisir...,test,d28d4b92-fbb7-4109-b017-dc5fca4aaf23,j,1,,
23,1,"ken mcrae",12/05/2020,99999,tandem,site,9:00,10:00,1,Choisir...,Choisir...,test,c8e14c33-cd10-4c79-aee4-aee351c13068,j,1,,
24,1,"ken mcrae",20/05/2020,939393,tandem,site,9:00,10:00,1,evenement,13,test,45813528-9895-4dd7-90c6-d57dc1ea59d3,T,1,,
25,1,"ken mcrae",21/05/2020,888888,tandem,site,9:00,10:00,1,comptabilite,16,test,2cf4e154-14f5-45fd-b8a2-2b4bbaebb8dc,9,1,,
26,1,"ken mcrae",22/05/2020,888888,tandem,site,10:00,11:00,1,evenement,meeting,test,7fdc78c5-a088-4bb0-bb07-d6863178a54f,I,1,,
27,1,"ken mcrae",22/05/2020,999999,tandem,site,10:00,11:00,1,evenement,meeting,site,6acff836-9c85-4249-b898-f21ebb1d3209,I,1,,
28,1,"ken mcrae",22/05/2020,999999,tandem,site,10:00,11:00,1,evenement,meeting,test,842642f6-0be4-4302-bca5-1640f7c3056a,I,1,"2020-05-22 08:44:57",
29,1,"ken mcrae",22/05/2020,99999,tandem,site,11:00,12:00,1,evenement,meeting,test,54e6d767-dda0-473a-a900-c5f64a33b3e1,I,1,,
18,8,lilou,28/04/2020,10101010,tandem,site,9:00,9:30,0.3000000000000007,design,creation,test,ecb333d1-0080-4b84-95e2-1d0901b85b75,i,1,,
19,3,millie,05/05/2020,999999,tandem,site,9:00,10:00,1,evenement,creation,test,49a665d3-556b-45e9-8942-688699aa2ff4,p,1,,
